…
Read data and clean data
------------------------

``` r
library(p8105.datasets)
data("brfss_smart2010") 
brfss_data<- janitor::clean_names(brfss_smart2010)
brfss_data %>% 
  filter(topic == "Overall Health") %>% 
  select(-class, -topic, -question, -sample_size, -c(confidence_limit_low:geo_location)) 
```

    ## # A tibble: 10,625 x 5
    ##     year locationabbr locationdesc          response  data_value
    ##    <int> <chr>        <chr>                 <chr>          <dbl>
    ##  1  2010 AL           AL - Jefferson County Excellent       18.9
    ##  2  2010 AL           AL - Jefferson County Very good       30  
    ##  3  2010 AL           AL - Jefferson County Good            33.1
    ##  4  2010 AL           AL - Jefferson County Fair            12.5
    ##  5  2010 AL           AL - Jefferson County Poor             5.5
    ##  6  2010 AL           AL - Mobile County    Excellent       15.6
    ##  7  2010 AL           AL - Mobile County    Very good       31.3
    ##  8  2010 AL           AL - Mobile County    Good            31.2
    ##  9  2010 AL           AL - Mobile County    Fair            15.5
    ## 10  2010 AL           AL - Mobile County    Poor             6.4
    ## # ... with 10,615 more rows
…
